<?xml version='1.0' encoding='UTF-8' standalone='no'?>
<!-- Created with Fritzing (http://www.fritzing.org/) -->
<svg xmlns="http://www.w3.org/2000/svg" version="1.2" baseProfile="tiny" x="0in" width="2.3622in" xmlns:svg="http://www.w3.org/2000/svg"  y="0in" height="1.39764in" viewBox="0 0 170.079 100.63">
 <g partID="57360">
  <g  id="board">
   <rect stroke-width="0.5" width="169.503" x="0.288" stroke="black"  y="0.288" fill-opacity="0.5" id="boardoutline" height="100.054" fill="none"/>
  </g>
 </g>
 <g partID="856583660">
  <g transform="translate(92.8536,85.0996)">
   <g  id="copper0">
    <circle stroke-width="1.41732" stroke="black"  cy="4.71811" cx="4.71811" r="2.40945" id="connector0pin" fill="none"/>
   </g>
  </g>
 </g>
 <g partID="856583630">
  <g transform="translate(56.8536,85.0996)">
   <g  id="copper0">
    <circle stroke-width="1.41732" stroke="black"  cy="4.71811" cx="4.71811" r="2.40945" id="connector0pin" fill="none"/>
   </g>
  </g>
 </g>
 <g partID="856574060">
  <g transform="translate(60.7376,20.5834)">
   <g  id="copper0">
    <circle stroke-width="1.41732" stroke="black"  cy="4.43465" cx="4.43465" r="2.12599" id="connector0pin" fill="none"/>
   </g>
  </g>
 </g>
 <g partID="856574000">
  <g transform="translate(67.9376,20.5834)">
   <g  id="copper0">
    <circle stroke-width="1.41732" stroke="black"  cy="4.43465" cx="4.43465" r="2.12599" id="connector0pin" fill="none"/>
   </g>
  </g>
 </g>
 <g partID="856573930">
  <g transform="translate(53.5376,20.5834)">
   <g  id="copper0">
    <circle stroke-width="1.41732" stroke="black"  cy="4.43465" cx="4.43465" r="2.12599" id="connector0pin" fill="none"/>
   </g>
  </g>
 </g>
 <g partID="856574480">
  <g transform="translate(134.268,42.0279)">
   <g  id="copper0">
    <circle stroke-width="0" stroke="black"  cy="10.1039" cx="10.1039" r="8.50392" id="nonconn0" fill="black"/>
   </g>
  </g>
 </g>
 <g partID="856574450">
  <g transform="translate(134.268,45.6279)">
   <g  id="copper0">
    <circle stroke-width="0" stroke="black"  cy="10.1039" cx="10.1039" r="8.50392" id="nonconn0" fill="black"/>
   </g>
  </g>
 </g>
 <g partID="856572350">
  <g transform="translate(37.812,55.978)">
   <g transform="matrix(0,1,-1,0,0,0)">
    <g  id="copper0">
     <circle stroke-width="1.44" stroke="black"  cy="5.04" cx="5.04" id="connector0pin" r="2.088" fill="none"/>
     <circle stroke-width="1.44" stroke="black"  cy="12.24" cx="5.04" id="connector1pin" r="2.088" fill="none"/>
    </g>
   </g>
  </g>
 </g>
 <g partID="856569240">
  <g transform="translate(23.124,64.0284)">
   <g  id="copper0">
    <circle stroke-width="1.44" stroke="black"  cy="25.7896" cx="6.048" id="connector0pad" r="1.98" fill="none"/>
    <circle stroke-width="1.44" stroke="black"  cy="25.7896" cx="13.248" id="connector1pad" r="1.98" fill="none"/>
    <circle stroke-width="1.44" stroke="black"  cy="25.7896" cx="20.448" id="connector2pad" r="1.98" fill="none"/>
    <circle stroke-width="1.44" stroke="black"  cy="25.7896" cx="27.648" id="connector3pad" r="1.98" fill="none"/>
    <circle stroke-width="1.44" stroke="black"  cy="4.18961" cx="27.648" id="connector4pad" r="1.98" fill="none"/>
    <circle stroke-width="1.44" stroke="black"  cy="4.18961" cx="20.448" id="connector5pad" r="1.98" fill="none"/>
    <circle stroke-width="1.44" stroke="black"  cy="4.18961" cx="13.248" id="connector6pad" r="1.98" fill="none"/>
    <circle stroke-width="1.44" stroke="black"  cy="4.18961" cx="6.048" id="connector7pad" r="1.98" fill="none"/>
   </g>
  </g>
 </g>
 <g partID="856027200">
  <g transform="translate(81.7264,61.1314)">
   <g  id="copper0">
    <g  id="copper1">
     <circle stroke-width="1.41732" stroke="black"  cy="7.08448" cx="22.5479" id="connector1pin" r="1.84465" fill="none"/>
     <circle stroke-width="1.41732" stroke="black"  cy="7.08661" cx="8.64567" id="connector0pin" r="1.84252" fill="none"/>
    </g>
   </g>
  </g>
 </g>
 <g partID="856027500">
  <g transform="translate(69.492,72.538)">
   <g transform="matrix(1,0,0,1,0,0)">
    <g  id="copper0">
     <g  id="copper1">
      <circle stroke-width="1.44" stroke="black"  cy="2.88" cx="2.88" id="connector0pin" r="1.8" fill="none"/>
      <circle stroke-width="1.44" stroke="black"  cy="2.88" cx="10.0933" id="connector1pin" r="1.8" fill="none"/>
     </g>
    </g>
   </g>
  </g>
 </g>
 <g partID="856027300">
  <g transform="translate(69.492,58.138)">
   <g  id="copper0">
    <g  id="copper1">
     <circle stroke-width="1.44" stroke="black"  cy="2.88" cx="2.88" id="connector0pin" r="1.8" fill="none"/>
     <circle stroke-width="1.44" stroke="black"  cy="2.88" cx="10.0933" id="connector1pin" r="1.8" fill="none"/>
    </g>
   </g>
  </g>
 </g>
 <g partID="856574500">
  <g transform="translate(91.812,84.778)">
   <g transform="matrix(0,1,-1,0,0,0)">
    <g flipped="1" id="copper0">
     <g transform="matrix(-1, 0, 0, 1, 10.08, 0)">
      <g>
       <g>
        <g>
         <g id="copper0">
          <circle stroke-width="1.44" stroke="black" cy="5.04" cx="5.04" id="connector0pin" r="2.088" fill="none"/>
          <circle stroke-width="1.44" stroke="black" cy="12.24" cx="5.04" id="connector1pin" r="2.088" fill="none"/>
          <circle stroke-width="1.44" stroke="black" cy="19.44" cx="5.04" id="connector2pin" r="2.088" fill="none"/>
         </g>
        </g>
        <g>
         <circle stroke-width="1.44" stroke="black" cy="5.04" cx="5.04" id="connector0pin" r="2.088" fill="none"/>
         <circle stroke-width="1.44" stroke="black" cy="12.24" cx="5.04" id="connector1pin" r="2.088" fill="none"/>
         <circle stroke-width="1.44" stroke="black" cy="19.44" cx="5.04" id="connector2pin" r="2.088" fill="none"/>
        </g>
       </g>
      </g>
     </g>
    </g>
   </g>
  </g>
 </g>
 <g partID="856531930">
  <g transform="translate(118.272,58.318)">
   <g transform="matrix(-1.11022e-16,1,-1,-1.11022e-16,0,0)">
    <g  id="copper0">
     <g  id="copper1">
      <!-- <rect width="55" x="10" y="10" fill="none" height="55" stroke="rgb(255, 191, 0)" stroke-width="20" /> -->
      <circle stroke-width="1.44" stroke="black"  cy="2.7" cx="2.7" r="1.98" id="connector0pin" fill="none"/>
      <circle stroke-width="1.44" stroke="black"  cy="2.7" cx="24.3" r="1.98" id="connector1pin" fill="none"/>
     </g>
    </g>
   </g>
  </g>
 </g>
 <g partID="856025160">
  <g transform="translate(152.92,4.766)">
   <g  id="copper0">
    <circle stroke-width="0" stroke="black"  cy="5.85197" cx="5.85197" r="4.25197" id="nonconn0" fill="black"/>
   </g>
  </g>
 </g>
 <g partID="856025140">
  <g transform="translate(5.32,4.766)">
   <g  id="copper0">
    <circle stroke-width="0" stroke="black"  cy="5.85197" cx="5.85197" r="4.25197" id="nonconn0" fill="black"/>
   </g>
  </g>
 </g>
 <g partID="856025120">
  <g transform="translate(5.32,83.966)">
   <g  id="copper0">
    <circle stroke-width="0" stroke="black"  cy="5.85197" cx="5.85197" r="4.25197" id="nonconn0" fill="black"/>
   </g>
  </g>
 </g>
 <g partID="856025090">
  <g transform="translate(152.92,83.966)">
   <g  id="copper0">
    <circle stroke-width="0" stroke="black"  cy="5.85197" cx="5.85197" r="4.25197" id="nonconn0" fill="black"/>
   </g>
  </g>
 </g>
 <g partID="855996560">
  <g transform="translate(17.652,58.138)">
   <g transform="matrix(0,-1,1,0,0,0)">
    <g id="copper0">
     <rect width="3.96" x="2.34" stroke-width="1.44" stroke="black" y="2.34" height="3.96" id="square" fill="none"/>
     <circle stroke-width="1.44" stroke="black" d="M 87.5,60 C 87.5,75.187831 75.187831,87.5 60,87.5 44.812169,87.5 32.5,75.187831 32.5,60 32.5,44.812169 44.812169,32.5 60,32.5 75.187831,32.5 87.5,44.812169 87.5,60 z" cy="4.32" cx="4.32" id="connector1pin" r="1.98" fill="none"/>
     <circle stroke-width="1.44" stroke="black" d="m 87.5,160 c 0,15.18783 -12.312169,27.5 -27.5,27.5 -15.187831,0 -27.5,-12.31217 -27.5,-27.5 0,-15.18783 12.312169,-27.5 27.5,-27.5 15.187831,0 27.5,12.31217 27.5,27.5 z" cy="11.52" cx="4.32" id="connector2pin" r="1.98" fill="none"/>
     <circle stroke-width="1.44" stroke="black" d="m 87.5,260 c 0,15.18783 -12.312169,27.5 -27.5,27.5 -15.187831,0 -27.5,-12.31217 -27.5,-27.5 0,-15.18783 12.312169,-27.5 27.5,-27.5 15.187831,0 27.5,12.31217 27.5,27.5 z" cy="18.72" cx="4.32" id="connector3pin" r="1.98" fill="none"/>
     <circle stroke-width="1.44" stroke="black" d="m 87.5,360 c 0,15.18783 -12.312169,27.5 -27.5,27.5 -15.187831,0 -27.5,-12.31217 -27.5,-27.5 0,-15.18783 12.312169,-27.5 27.5,-27.5 15.187831,0 27.5,12.31217 27.5,27.5 z" cy="25.92" cx="4.32" id="connector4pin" r="1.98" fill="none"/>
     <circle stroke-width="1.44" stroke="black" d="m 87.5,460 c 0,15.18783 -12.312169,27.5 -27.5,27.5 -15.187831,0 -27.5,-12.31217 -27.5,-27.5 0,-15.18783 12.312169,-27.5 27.5,-27.5 15.187831,0 27.5,12.31217 27.5,27.5 z" cy="33.12" cx="4.32" id="connector5pin" r="1.98" fill="none"/>
     <circle stroke-width="1.44" stroke="black" d="m 87.5,560 c 0,15.18783 -12.312169,27.5 -27.5,27.5 -15.187831,0 -27.5,-12.31217 -27.5,-27.5 0,-15.18783 12.312169,-27.5 27.5,-27.5 15.187831,0 27.5,12.31217 27.5,27.5 z" cy="40.32" cx="4.32" id="connector6pin" r="1.98" fill="none"/>
     <circle stroke-width="1.44" stroke="black" d="m 87.5,660 c 0,15.18783 -12.312169,27.5 -27.5,27.5 -15.187831,0 -27.5,-12.31217 -27.5,-27.5 0,-15.18783 12.312169,-27.5 27.5,-27.5 15.187831,0 27.5,12.31217 27.5,27.5 z" cy="47.52" cx="4.32" id="connector7pin" r="1.98" fill="none"/>
     <circle stroke-width="1.44" stroke="black" d="m 87.5,760 c 0,15.18783 -12.312169,27.5 -27.5,27.5 -15.187831,0 -27.5,-12.31217 -27.5,-27.5 0,-15.18783 12.312169,-27.5 27.5,-27.5 15.187831,0 27.5,12.31217 27.5,27.5 z" cy="54.72" cx="4.32" id="connector8pin" r="1.98" fill="none"/>
     <g transform="matrix(1, 0, 0, 1, 0, 43.2)">
      <circle stroke-width="1.44" stroke="black" d="m 87.5,260 c 0,15.18783 -12.312169,27.5 -27.5,27.5 -15.187831,0 -27.5,-12.31217 -27.5,-27.5 0,-15.18783 12.312169,-27.5 27.5,-27.5 15.187831,0 27.5,12.31217 27.5,27.5 z" cy="18.72" cx="4.32" id="connector9pin" r="1.98" fill="none"/>
     </g>
     <g transform="matrix(1, 0, 0, 1, 0, 43.2)">
      <circle stroke-width="1.44" stroke="black" d="m 87.5,360 c 0,15.18783 -12.312169,27.5 -27.5,27.5 -15.187831,0 -27.5,-12.31217 -27.5,-27.5 0,-15.18783 12.312169,-27.5 27.5,-27.5 15.187831,0 27.5,12.31217 27.5,27.5 z" cy="25.92" cx="4.32" id="connector10pin" r="1.98" fill="none"/>
     </g>
     <g transform="matrix(1, 0, 0, 1, 0, 43.2)">
      <circle stroke-width="1.44" stroke="black" d="m 87.5,460 c 0,15.18783 -12.312169,27.5 -27.5,27.5 -15.187831,0 -27.5,-12.31217 -27.5,-27.5 0,-15.18783 12.312169,-27.5 27.5,-27.5 15.187831,0 27.5,12.31217 27.5,27.5 z" cy="33.12" cx="4.32" id="connector11pin" r="1.98" fill="none"/>
     </g>
     <g transform="matrix(1, 0, 0, 1, 0, 43.2)">
      <circle stroke-width="1.44" stroke="black" d="m 87.5,560 c 0,15.18783 -12.312169,27.5 -27.5,27.5 -15.187831,0 -27.5,-12.31217 -27.5,-27.5 0,-15.18783 12.312169,-27.5 27.5,-27.5 15.187831,0 27.5,12.31217 27.5,27.5 z" cy="40.32" cx="4.32" id="connector12pin" r="1.98" fill="none"/>
     </g>
     <g transform="matrix(1, 0, 0, 1, 0, 43.2)">
      <circle stroke-width="1.44" stroke="black" d="m 87.5,660 c 0,15.18783 -12.312169,27.5 -27.5,27.5 -15.187831,0 -27.5,-12.31217 -27.5,-27.5 0,-15.18783 12.312169,-27.5 27.5,-27.5 15.187831,0 27.5,12.31217 27.5,27.5 z" cy="47.52" cx="4.32" id="connector13pin" r="1.98" fill="none"/>
     </g>
     <g transform="matrix(1, 0, 0, 1, 0, 43.2)">
      <circle stroke-width="1.44" stroke="black" d="m 87.5,760 c 0,15.18783 -12.312169,27.5 -27.5,27.5 -15.187831,0 -27.5,-12.31217 -27.5,-27.5 0,-15.18783 12.312169,-27.5 27.5,-27.5 15.187831,0 27.5,12.31217 27.5,27.5 z" cy="54.72" cx="4.32" id="connector14pin" r="1.98" fill="none"/>
     </g>
     <g transform="matrix(1, 0, 0, 1, 0, 43.2)">
      <circle stroke-width="1.44" stroke="black" d="m 387.5,760 c 0,15.18783 -12.31217,27.5 -27.5,27.5 -15.18783,0 -27.5,-12.31217 -27.5,-27.5 0,-15.18783 12.31217,-27.5 27.5,-27.5 15.18783,0 27.5,12.31217 27.5,27.5 z" cy="54.72" cx="25.92" id="connector15pin" r="1.98" fill="none"/>
     </g>
     <g transform="matrix(1, 0, 0, 1, 0, 43.2)">
      <circle stroke-width="1.44" stroke="black" d="m 387.5,660 c 0,15.18783 -12.31217,27.5 -27.5,27.5 -15.18783,0 -27.5,-12.31217 -27.5,-27.5 0,-15.18783 12.31217,-27.5 27.5,-27.5 15.18783,0 27.5,12.31217 27.5,27.5 z" cy="47.52" cx="25.92" id="connector16pin" r="1.98" fill="none"/>
     </g>
     <g transform="matrix(1, 0, 0, 1, 0, 43.2)">
      <circle stroke-width="1.44" stroke="black" d="m 387.5,560 c 0,15.18783 -12.31217,27.5 -27.5,27.5 -15.18783,0 -27.5,-12.31217 -27.5,-27.5 0,-15.18783 12.31217,-27.5 27.5,-27.5 15.18783,0 27.5,12.31217 27.5,27.5 z" cy="40.32" cx="25.92" id="connector17pin" r="1.98" fill="none"/>
     </g>
     <g transform="matrix(1, 0, 0, 1, 0, 43.2)">
      <circle stroke-width="1.44" stroke="black" d="m 387.5,460 c 0,15.18783 -12.31217,27.5 -27.5,27.5 -15.18783,0 -27.5,-12.31217 -27.5,-27.5 0,-15.18783 12.31217,-27.5 27.5,-27.5 15.18783,0 27.5,12.31217 27.5,27.5 z" cy="33.12" cx="25.92" id="connector18pin" r="1.98" fill="none"/>
     </g>
     <g transform="matrix(1, 0, 0, 1, 0, 43.2)">
      <circle stroke-width="1.44" stroke="black" d="m 387.5,360 c 0,15.18783 -12.31217,27.5 -27.5,27.5 -15.18783,0 -27.5,-12.31217 -27.5,-27.5 0,-15.18783 12.31217,-27.5 27.5,-27.5 15.18783,0 27.5,12.31217 27.5,27.5 z" cy="25.92" cx="25.92" id="connector19pin" r="1.98" fill="none"/>
     </g>
     <g transform="matrix(1, 0, 0, 1, 0, 43.2)">
      <circle stroke-width="1.44" stroke="black" d="m 387.5,260 c 0,15.18783 -12.31217,27.5 -27.5,27.5 -15.18783,0 -27.5,-12.31217 -27.5,-27.5 0,-15.18783 12.31217,-27.5 27.5,-27.5 15.18783,0 27.5,12.31217 27.5,27.5 z" cy="18.72" cx="25.92" id="connector20pin" r="1.98" fill="none"/>
     </g>
     <circle stroke-width="1.44" stroke="black" d="m 387.5,760 c 0,15.18783 -12.31217,27.5 -27.5,27.5 -15.18783,0 -27.5,-12.31217 -27.5,-27.5 0,-15.18783 12.31217,-27.5 27.5,-27.5 15.18783,0 27.5,12.31217 27.5,27.5 z" cy="54.72" cx="25.92" id="connector21pin" r="1.98" fill="none"/>
     <circle stroke-width="1.44" stroke="black" d="m 387.5,660 c 0,15.18783 -12.31217,27.5 -27.5,27.5 -15.18783,0 -27.5,-12.31217 -27.5,-27.5 0,-15.18783 12.31217,-27.5 27.5,-27.5 15.18783,0 27.5,12.31217 27.5,27.5 z" cy="47.52" cx="25.92" id="connector22pin" r="1.98" fill="none"/>
     <circle stroke-width="1.44" stroke="black" d="m 387.5,560 c 0,15.18783 -12.31217,27.5 -27.5,27.5 -15.18783,0 -27.5,-12.31217 -27.5,-27.5 0,-15.18783 12.31217,-27.5 27.5,-27.5 15.18783,0 27.5,12.31217 27.5,27.5 z" cy="40.32" cx="25.92" id="connector23pin" r="1.98" fill="none"/>
     <circle stroke-width="1.44" stroke="black" d="m 387.5,460 c 0,15.18783 -12.31217,27.5 -27.5,27.5 -15.18783,0 -27.5,-12.31217 -27.5,-27.5 0,-15.18783 12.31217,-27.5 27.5,-27.5 15.18783,0 27.5,12.31217 27.5,27.5 z" cy="33.12" cx="25.92" id="connector24pin" r="1.98" fill="none"/>
     <circle stroke-width="1.44" stroke="black" d="m 387.5,360 c 0,15.18783 -12.31217,27.5 -27.5,27.5 -15.18783,0 -27.5,-12.31217 -27.5,-27.5 0,-15.18783 12.31217,-27.5 27.5,-27.5 15.18783,0 27.5,12.31217 27.5,27.5 z" cy="25.92" cx="25.92" id="connector25pin" r="1.98" fill="none"/>
     <circle stroke-width="1.44" stroke="black" d="m 387.5,260 c 0,15.18783 -12.31217,27.5 -27.5,27.5 -15.18783,0 -27.5,-12.31217 -27.5,-27.5 0,-15.18783 12.31217,-27.5 27.5,-27.5 15.18783,0 27.5,12.31217 27.5,27.5 z" cy="18.72" cx="25.92" id="connector26pin" r="1.98" fill="none"/>
     <circle stroke-width="1.44" stroke="black" d="m 387.5,160 c 0,15.18783 -12.31217,27.5 -27.5,27.5 -15.18783,0 -27.5,-12.31217 -27.5,-27.5 0,-15.18783 12.31217,-27.5 27.5,-27.5 15.18783,0 27.5,12.31217 27.5,27.5 z" cy="11.52" cx="25.92" id="connector27pin" r="1.98" fill="none"/>
     <circle stroke-width="1.44" stroke="black" d="m 387.5,60 c 0,15.187831 -12.31217,27.5 -27.5,27.5 -15.18783,0 -27.5,-12.312169 -27.5,-27.5 0,-15.187831 12.31217,-27.5 27.5,-27.5 15.18783,0 27.5,12.312169 27.5,27.5 z" cy="4.32" cx="25.92" id="connector28pin" r="1.98" fill="none"/>
    </g>
   </g>
  </g>
 </g>
 <g partID="856571740">
  <g transform="translate(108.66,22.426)">
   <g transform="matrix(-1,0,0,-1,0,0)">
    <g  id="copper0">
     <circle stroke-width="1.224" stroke="black"  cy="11.088" cx="3.888" id="connector0pad" connectorname="1" r="2.052" fill="none"/>
     <circle stroke-width="1.224" stroke="black"  cy="3.888" cx="3.888" id="connector1pad" connectorname="2" r="2.052" fill="none"/>
     <circle stroke-width="1.224" stroke="black"  cy="11.808" cx="11.088" id="connector2pad" connectorname="3" r="2.052" fill="none"/>
     <circle stroke-width="1.224" stroke="black"  cy="4.608" cx="11.088" id="connector3pad" connectorname="4" r="2.052" fill="none"/>
     <circle stroke-width="1.224" stroke="black"  cy="11.088" cx="18.288" id="connector4pad" connectorname="5" r="2.052" fill="none"/>
     <circle stroke-width="1.224" stroke="black"  cy="3.888" cx="18.288" id="connector5pad" connectorname="6" r="2.052" fill="none"/>
    </g>
   </g>
  </g>
 </g>
 <g partID="856586750">
  <g transform="translate(60.0128,64.8731)">
   <g flipped="1" id="copper0">
    <g transform="matrix(-1, 0, 0, 1, 8.50394, 0)">
     <g>
      <g>
       <g>
        <!-- unten links -->
        <rect x="0.425197" width="2.26772" stroke="none" y="5.66929" fill-opacity="1" height="2.55118" id="connector0pad" fill="black"/>
        <!-- oben mitte -->
        <rect x="3.11811" width="2.26772" stroke="none" y="0" fill-opacity="1" height="2.55118" id="connector1pad" fill="black"/>
        <!-- unten rechts -->
        <rect x="5.81102" width="2.26772" stroke="none" y="5.66929" fill-opacity="1" height="2.55118" id="connector2pad" fill="black"/>
       </g>
      </g>
     </g>
    </g>
   </g>
  </g>
 </g>
 <g partID="856588460">
  <line stroke-linecap="round" stroke-width="2.304" stroke="black" x2="61.5667" y1="82.7004" x1="61.5096" y2="72.6936"/>
 </g>
 <g partID="856588410">
  <line stroke-linecap="round" stroke-width="2.304" stroke="black" x2="61.5102" y1="82.7004" x1="83.2336" y2="82.7004"/>
 </g>
 <g partID="856588370">
  <line stroke-linecap="round" stroke-width="2.304" stroke="black" x2="83.2333" y1="87.5185" x1="85.6288" y2="82.7001"/>
 </g>
 <g partID="856588530">
  <line stroke-linecap="round" stroke-width="2.304" stroke="black" x2="64.3293" y1="56.2714" x1="64.9915" y2="65.2731"/>
 </g>
 <g partID="856588550">
  <line stroke-linecap="round" stroke-width="3.456" stroke="black" x2="67.6915" y1="73.9341" x1="70.1403" y2="72.3059"/>
 </g>
 <g partID="856585850">
  <line stroke-linecap="round" stroke-width="2.304" stroke="black" x2="115.572" y1="58.558" x1="115.572" y2="56.278"/>
 </g>
 <g partID="856584540">
  <line stroke-linecap="round" stroke-width="2.304" stroke="black" x2="83.2333" y1="97.0812" x1="104.83" y2="96.956"/>
 </g>
 <g partID="856584510">
  <line stroke-linecap="round" stroke-width="2.304" stroke="black" x2="80.7443" y1="96.9564" x1="83.2336" y2="92.1033"/>
 </g>
 <g partID="856584490">
  <line stroke-linecap="round" stroke-width="2.304" stroke="black" x2="104.83" y1="84.5929" x1="114.105" y2="97.0812"/>
 </g>
 <g partID="856584790">
  <line stroke-linecap="round" stroke-width="3.456" stroke="black" x2="69.4043" y1="89.8181" x1="64.8728" y2="89.8182"/>
 </g>
 <g partID="856584900">
  <line stroke-linecap="round" stroke-width="3.456" stroke="black" x2="58.2712" y1="89.818" x1="53.632" y2="89.818"/>
 </g>
 <g partID="856585240">
  <line stroke-linecap="round" stroke-width="3.456" stroke="black" x2="89.7403" y1="89.8181" x1="94.2712" y2="89.8182"/>
 </g>
 <g partID="856585550">
  <line stroke-linecap="round" stroke-width="3.456" stroke="black" x2="72.372" y1="72.738" x1="72.372" y2="63.698"/>
 </g>
 <g partID="856574080">
  <line stroke-linecap="round" stroke-width="2.304" stroke="black" x2="57.972" y1="29.758" x1="57.972" y2="27.6353"/>
 </g>
 <g partID="856574130">
  <line stroke-linecap="round" stroke-width="3.456" stroke="black" x2="65.172" y1="29.358" x1="65.172" y2="28.0353"/>
 </g>
 <g partID="856574200">
  <line stroke-linecap="round" stroke-width="2.304" stroke="black" x2="72.372" y1="29.758" x1="72.372" y2="27.6353"/>
 </g>
 <g partID="856572370">
  <line stroke-linecap="round" stroke-width="2.304" stroke="black" x2="35.2719" y1="58.7211" x1="33.9204" y2="56.0183"/>
 </g>
 <g partID="856572890">
  <line stroke-linecap="round" stroke-width="3.456" stroke="black" x2="23.4827" y1="64.6598" x1="21.9624" y2="63.1259"/>
 </g>
 <g partID="856572820">
  <line stroke-linecap="round" stroke-width="3.456" stroke="black" x2="21.9622" y1="75.4428" x1="21.9624" y2="64.6598"/>
 </g>
 <g partID="856572750">
  <line stroke-linecap="round" stroke-width="3.456" stroke="black" x2="21.9624" y1="87.2615" x1="27.8898" y2="75.4428"/>
 </g>
 <g partID="856569470">
  <line stroke-linecap="round" stroke-width="3.456" stroke="black" x2="46.432" y1="89.818" x1="47.912" y2="89.818"/>
 </g>
 <g partID="856569600">
  <line stroke-linecap="round" stroke-width="3.456" stroke="black" x2="39.232" y1="89.818" x1="40.712" y2="89.818"/>
 </g>
 <g partID="856569770">
  <line stroke-linecap="round" stroke-width="3.456" stroke="black" x2="32.032" y1="89.818" x1="33.512" y2="89.818"/>
 </g>
 <g partID="856571670">
  <line stroke-linecap="round" stroke-width="2.304" stroke="black" x2="56.8719" y1="66.0177" x1="51.8721" y2="56.0183"/>
 </g>
 <g partID="856571700">
  <line stroke-linecap="round" stroke-width="2.304" stroke="black" x2="49.6719" y1="66.0177" x1="44.6721" y2="56.0183"/>
 </g>
 <g partID="856571730">
  <line stroke-linecap="round" stroke-width="2.304" stroke="black" x2="42.4719" y1="66.0177" x1="37.4721" y2="56.0183"/>
 </g>
 <g partID="856584170">
  <line stroke-linecap="round" stroke-width="2.304" stroke="black" x2="87.8528" y1="61.0604" x1="90.3144" y2="56.0278"/>
 </g>
 <g partID="856537070">
  <line stroke-linecap="round" stroke-width="2.304" stroke="black" x2="90.3146" y1="67.1503" x1="102.196" y2="61.0604"/>
 </g>
 <g partID="856538710">
  <line stroke-linecap="round" stroke-width="2.304" stroke="black" x2="79.5768" y1="58.738" x1="79.5814" y2="56.278"/>
 </g>
 <g partID="856538770">
  <line stroke-linecap="round" stroke-width="2.304" stroke="black" x2="81.4817" y1="66.9223" x1="88.4309" y2="62.2838"/>
 </g>
 <g partID="856538910">
  <line stroke-linecap="round" stroke-width="3.456" stroke="black" x2="72.372" y1="58.338" x1="72.372" y2="56.678"/>
 </g>
 <g partID="856541010">
  <line stroke-linecap="round" stroke-width="2.304" stroke="black" x2="103.35" y1="75.418" x1="101.172" y2="70.3613"/>
 </g>
 <g partID="856539150">
  <line stroke-linecap="round" stroke-width="2.304" stroke="black" x2="101.172" y1="75.418" x1="81.8656" y2="75.418"/>
 </g>
 <g partID="856572130">
  <line stroke-linecap="round" stroke-width="2.304" stroke="black" x2="83.228" y1="6.9892" x1="83.228" y2="21.3662"/>
 </g>
 <g partID="856572100">
  <line stroke-linecap="round" stroke-width="2.304" stroke="black" x2="86.0083" y1="21.3662" x1="83.228" y2="29.8795"/>
 </g>
 <g partID="856572070">
  <line stroke-linecap="round" stroke-width="2.304" stroke="black" x2="83.2282" y1="3.39496" x1="86.8224" y2="6.9892"/>
 </g>
 <g partID="856572040">
  <line stroke-linecap="round" stroke-width="2.304" stroke="black" x2="86.8219" y1="3.39496" x1="94.0104" y2="3.39496"/>
 </g>
 <g partID="856542380">
  <line stroke-linecap="round" stroke-width="2.304" stroke="black" x2="94.0108" y1="8.25015" x1="96.4046" y2="3.39496"/>
 </g>
 <g partID="856572210">
  <line stroke-linecap="round" stroke-width="2.304" stroke="black" x2="95.0729" y1="24.9604" x1="97.6048" y2="30.0182"/>
 </g>
 <g partID="856572160">
  <line stroke-linecap="round" stroke-width="2.304" stroke="black" x2="97.6046" y1="24.9604" x1="111.982" y2="24.9604"/>
 </g>
 <g partID="856571920">
  <line stroke-linecap="round" stroke-width="2.304" stroke="black" x2="111.982" y1="14.1777" x1="111.982" y2="24.9604"/>
 </g>
 <g partID="856542400">
  <line stroke-linecap="round" stroke-width="2.304" stroke="black" x2="111.982" y1="12.3054" x1="107.228" y2="14.1777"/>
 </g>
 <g partID="856544230">
  <line stroke-linecap="round" stroke-width="3.456" stroke="black" x2="66.0764" y1="51.1048" x1="71.4676" y2="34.9312"/>
 </g>
</svg>
