<?xml version='1.0' encoding='UTF-8' standalone='no'?>
<!-- Created with Fritzing (http://www.fritzing.org/) -->
<svg xmlns="http://www.w3.org/2000/svg" version="1.2" baseProfile="tiny" x="0in" width="2.3622in"  xmlns:svg="http://www.w3.org/2000/svg" y="0in" height="1.39764in" viewBox="0 0 170.079 100.63">
 <g partID="57362">
  <g id="silkscreen">
   <rect stroke-width="0.576" width="169.503" x="0.288" stroke="black" y="0.288" height="100.054" fill="none"/>
  </g>
 </g>
 <g partID="57360">
  <g id="board">
   <rect stroke-width="0.5" width="169.503" x="0.288" stroke="black" y="0.288" fill-opacity="0.5" id="boardoutline" height="100.054" fill="none"/>
  </g>
 </g>
 <g partID="57362">
  <g id="silkscreen">
   <rect stroke-width="0.576" width="169.503" x="0.288" stroke="black" y="0.288" height="100.054" fill="none"/>
  </g>
 </g>
 <g partID="856572351">
  <g transform="translate(37.812,55.978)">
   <g transform="matrix(0,1,-1,0,0,0)">
    <g id="silkscreen">
     <line stroke-width="0.72" stroke="black" x2="1.44" y1="1.44" x1="1.44" y2="15.84"/>
     <line stroke-width="0.72" stroke="black" x2="8.64" y1="15.84" x1="1.44" y2="15.84"/>
     <line stroke-width="0.72" stroke="black" x2="8.64" y1="15.84" x1="8.64" y2="1.44"/>
     <line stroke-width="0.72" stroke="black" x2="1.44" y1="1.44" x1="8.64" y2="1.44"/>
     <line stroke-width="0.36" stroke="black" x2="3.96" y1="3.96" x1="1.44" y2="1.44"/>
     <!-- 120 -->
    </g>
   </g>
  </g>
 </g>
 <g partID="856569241">
  <g transform="translate(23.124,64.0284)">
   <g id="silkscreen">
    <line stroke-width="0.576" stroke="black" style="stroke-linecap:round" x2="33.5424" y1="29.0296" x1="0.153408" id="line4555" y2="29.0296"/>
    <line stroke-width="0.576" stroke="black" style="stroke-linecap:round" x2="0.153408" y1="0.949606" x1="33.5424" id="line4557" y2="0.949606"/>
    <line stroke-width="0.576" stroke="black" style="stroke-linecap:round" x2="0.288" y1="0.949606" x1="0.288" id="line4559" y2="10.3096"/>
    <line stroke-width="0.576" stroke="black" style="stroke-linecap:round" x2="1.728" y1="19.6696" x1="0.288" id="line4561" y2="19.6696"/>
    <line stroke-width="0.576" stroke="black" style="stroke-linecap:round" x2="1.728" y1="19.6696" x1="1.728" id="line4563" y2="10.3096"/>
    <line stroke-width="0.576" stroke="black" style="stroke-linecap:round" x2="0.288" y1="10.3096" x1="1.728" id="line4565" y2="10.3096"/>
    <line stroke-width="0.576" stroke="black" style="stroke-linecap:round" x2="0.288" y1="19.6696" x1="0.288" id="line4567" y2="29.0296"/>
    <line stroke-width="0.576" stroke="black" style="stroke-linecap:round" x2="0.288" y1="10.3096" x1="0.288" id="line4569" y2="19.6696"/>
    <line stroke-width="0.576" stroke="black" style="stroke-linecap:round" x2="33.408" y1="29.0296" x1="33.408" id="line4571" y2="19.6696"/>
    <line stroke-width="0.576" stroke="black" style="stroke-linecap:round" x2="31.9681" y1="10.3096" x1="33.4081" id="line4573" y2="10.3096"/>
    <line stroke-width="0.576" stroke="black" style="stroke-linecap:round" x2="31.968" y1="10.3096" x1="31.968" id="line4575" y2="19.6696"/>
    <line stroke-width="0.576" stroke="black" style="stroke-linecap:round" x2="33.4081" y1="19.6696" x1="31.9681" id="line4577" y2="19.6696"/>
    <line stroke-width="0.576" stroke="black" style="stroke-linecap:round" x2="33.408" y1="10.3096" x1="33.408" id="line4579" y2="0.949606"/>
    <line stroke-width="0.576" stroke="black" style="stroke-linecap:round" x2="33.408" y1="19.6696" x1="33.408" id="line4581" y2="10.3096"/>
    <line stroke-width="0.576" stroke="black" style="stroke-linecap:round" x2="25.488" y1="9.58961" x1="25.488" id="line4615" y2="20.3896"/>
    <line stroke-width="0.576" stroke="black" style="stroke-linecap:round" x2="29.808" y1="9.58961" x1="25.488" id="line4617" y2="9.58961"/>
    <line stroke-width="0.576" stroke="black" style="stroke-linecap:round" x2="29.808" y1="20.3896" x1="29.808" id="line4619" y2="9.58961"/>
    <line stroke-width="0.576" stroke="black" style="stroke-linecap:round" x2="25.488" y1="20.3896" x1="29.808" id="line4621" y2="20.3896"/>
    <line stroke-width="0.576" stroke="black" style="stroke-linecap:round" x2="18.288" y1="9.58961" x1="18.288" id="line4623" y2="20.3896"/>
    <line stroke-width="0.576" stroke="black" style="stroke-linecap:round" x2="22.608" y1="9.58961" x1="18.288" id="line4625" y2="9.58961"/>
    <line stroke-width="0.576" stroke="black" style="stroke-linecap:round" x2="22.608" y1="20.3896" x1="22.608" id="line4627" y2="9.58961"/>
    <line stroke-width="0.576" stroke="black" style="stroke-linecap:round" x2="18.288" y1="20.3896" x1="22.608" id="line4629" y2="20.3896"/>
    <line stroke-width="0.576" stroke="black" style="stroke-linecap:round" x2="11.088" y1="9.58961" x1="11.088" id="line4631" y2="20.3896"/>
    <line stroke-width="0.576" stroke="black" style="stroke-linecap:round" x2="15.408" y1="9.58961" x1="11.088" id="line4633" y2="9.58961"/>
    <line stroke-width="0.576" stroke="black" style="stroke-linecap:round" x2="15.408" y1="20.3896" x1="15.408" id="line4635" y2="9.58961"/>
    <line stroke-width="0.576" stroke="black" style="stroke-linecap:round" x2="11.088" y1="20.3896" x1="15.408" id="line4637" y2="20.3896"/>
    <line stroke-width="0.576" stroke="black" style="stroke-linecap:round" x2="3.888" y1="9.58961" x1="3.888" id="line4639" y2="20.3896"/>
    <line stroke-width="0.576" stroke="black" style="stroke-linecap:round" x2="8.208" y1="9.58961" x1="3.888" id="line4641" y2="9.58961"/>
    <line stroke-width="0.576" stroke="black" style="stroke-linecap:round" x2="8.208" y1="20.3896" x1="8.208" id="line4643" y2="9.58961"/>
    <line stroke-width="0.576" stroke="black" style="stroke-linecap:round" x2="3.888" y1="20.3896" x1="8.208" id="line4645" y2="20.3896"/>
    <rect x="26.208" width="2.88" stroke-width="0" stroke="none" style="stroke-linecap:round" y="14.9896" height="1.08" id="rect4671" fill="black"/>
    <rect x="26.208" width="2.88" stroke-width="0" stroke="none" style="stroke-linecap:round" y="16.7896" height="1.08" id="rect4673" fill="black"/>
    <rect x="26.208" width="2.88" stroke-width="0" stroke="none" style="stroke-linecap:round" y="18.5896" height="1.08" id="rect4675" fill="black"/>
    <rect x="19.008" width="2.88" stroke-width="0" stroke="none" style="stroke-linecap:round" y="14.9896" height="1.08" id="rect4677" fill="black"/>
    <rect x="19.008" width="2.88" stroke-width="0" stroke="none" style="stroke-linecap:round" y="16.7896" height="1.08" id="rect4679" fill="black"/>
    <rect x="19.008" width="2.88" stroke-width="0" stroke="none" style="stroke-linecap:round" y="18.5896" height="1.08" id="rect4681" fill="black"/>
    <rect x="11.808" width="2.88" stroke-width="0" stroke="none" style="stroke-linecap:round" y="14.9896" height="1.08" id="rect4683" fill="black"/>
    <rect x="11.808" width="2.88" stroke-width="0" stroke="none" style="stroke-linecap:round" y="16.7896" height="1.08" id="rect4685" fill="black"/>
    <rect x="11.808" width="2.88" stroke-width="0" stroke="none" style="stroke-linecap:round" y="18.5896" height="1.08" id="rect4687" fill="black"/>
    <rect x="4.608" width="2.88" stroke-width="0" stroke="none" style="stroke-linecap:round" y="14.9896" height="1.08" id="rect4689" fill="black"/>
    <rect x="4.608" width="2.88" stroke-width="0" stroke="none" style="stroke-linecap:round" y="16.7896" height="1.08" id="rect4691" fill="black"/>
    <rect x="4.608" width="2.88" stroke-width="0" stroke="none" style="stroke-linecap:round" y="18.5896" height="1.08" id="rect4693" fill="black"/>
   </g>
  </g>
 </g>
 <g partID="856585640">
  <g transform="translate(93.9592,92.9388)">
   <g id="silkscreen">
    <text stroke-width="0" x="3.6" font-size="7.2" xml:space="preserve" y="6.48" xmlns:xml="http://www.w3.org/XML/1998/namespace" font-family="OCRA" id="label" text-anchor="middle" fill="black">+</text>
   </g>
  </g>
 </g>
 <g partID="856585620">
  <g transform="translate(57.8456,92.9388)">
   <g id="silkscreen">
    <text stroke-width="0" x="3.6" font-size="7.2" xml:space="preserve" y="6.48" xmlns:xml="http://www.w3.org/XML/1998/namespace" font-family="OCRA" id="label" text-anchor="middle" fill="black">-</text>
   </g>
  </g>
 </g>
 <g partID="856575490">
  <g transform="translate(7.4568,57.4558)">
   <g id="silkscreen">
    <text stroke-width="0" x="7.2" font-size="7.2" xml:space="preserve" y="6.48" xmlns:xml="http://www.w3.org/XML/1998/namespace" font-family="OCRA" id="label" text-anchor="middle" fill="black">TX</text>
   </g>
  </g>
 </g>
 <g partID="856027201">
  <g transform="translate(81.7264,61.1314)">
   <g id="silkscreen">
    <rect width="30.3307" x="0.425197" stroke-width="0.708661" stroke="black" style="stroke-linecap:round;stroke-linejoin:round;stroke-miterlimit:4;stroke-dasharray:none" ry="6.66142" y="0.425197" stroke-opacity="1" height="13.3228" id="rect4181" fill="none"/>
    <rect width="2.07874" x="14.5512" stroke-width="0.708661" stroke="black" style="stroke-linecap:round;stroke-linejoin:round;stroke-miterlimit:4;stroke-dasharray:none" y="3.9685" stroke-opacity="1" height="6.23622" id="rect4193" fill="none"/>
    <path stroke-width="0.708661" stroke="black" style="stroke-linecap:round;stroke-linejoin:miter;stroke-miterlimit:4;stroke-dasharray:none" d="m17.8583,4.25197,0,5.66929" stroke-opacity="1" id="path4195" fill="none"/>
    <path stroke-width="0.708661" stroke="black" style="stroke-linecap:round;stroke-linejoin:miter;stroke-miterlimit:4;stroke-dasharray:none" d="m13.3228,4.25197,0,5.66929" stroke-opacity="1" id="path4199" fill="none"/>
   </g>
  </g>
 </g>
 <g partID="856027501">
  <g transform="translate(69.492,72.538)">
   <g transform="matrix(1,0,0,1,0,0)">
    <g id="silkscreen">
     <g transform="matrix(1, 0, 0, 1, -1.43333, -1.16)">
      <path stroke-width="0.576" stroke="black" style="stroke-linecap:round;stroke-linejoin:round;stroke-miterlimit:4;stroke-dasharray:none" d="m6.65907,2.30036a1.84667,1.58,0,0,1,2.51037,0.001464" stroke-opacity="1" id="path2830" fill="none"/>
     </g>
     <g transform="matrix(-1, 0, 0, -1, 14.3952, 6.92)">
      <path stroke-width="0.576" stroke="black" style="stroke-linecap:round;stroke-linejoin:round;stroke-miterlimit:4;stroke-dasharray:none" d="m6.65907,2.30036a1.84667,1.58,0,0,1,2.51037,0.001464" stroke-opacity="1" id="path2830-1" fill="none"/>
     </g>
    </g>
   </g>
  </g>
 </g>
 <g partID="856027301">
  <g transform="translate(69.492,58.138)">
   <g id="silkscreen">
    <g transform="matrix(1, 0, 0, 1, -1.43333, -1.16)">
     <path stroke-width="0.576" stroke="black" style="stroke-linecap:round;stroke-linejoin:round;stroke-miterlimit:4;stroke-dasharray:none" d="m6.65907,2.30036a1.84667,1.58,0,0,1,2.51037,0.001464" stroke-opacity="1" id="path2830" fill="none"/>
    </g>
    <g transform="matrix(-1, 0, 0, -1, 14.3952, 6.92)">
     <path stroke-width="0.576" stroke="black" style="stroke-linecap:round;stroke-linejoin:round;stroke-miterlimit:4;stroke-dasharray:none" d="m6.65907,2.30036a1.84667,1.58,0,0,1,2.51037,0.001464" stroke-opacity="1" id="path2830-1" fill="none"/>
    </g>
   </g>
  </g>
 </g>
 <g partID="856531931">
  <g transform="translate(118.272,58.318)">
   <g transform="matrix(-1.11022e-16,1,-1,-1.11022e-16,0,0)">
    <g id="silkscreen">
     <line stroke-width="0.72" stroke="black" x2="8.064" y1="2.736" x1="5.4" y2="2.736"/>
     <line stroke-width="0.72" stroke="black" x2="21.6" y1="2.736" x1="18.864" y2="2.736"/>
     <line stroke-width="0.72" stroke="black" x2="18.864" y1="0.936" x1="8.064" y2="0.936"/>
     <line stroke-width="0.72" stroke="black" x2="18.864" y1="0.936" x1="18.864" y2="4.536"/>
     <line stroke-width="0.72" stroke="black" x2="8.064" y1="4.536" x1="18.864" y2="4.536"/>
     <line stroke-width="0.72" stroke="black" x2="8.064" y1="4.536" x1="8.064" y2="0.936"/>
    </g>
   </g>
  </g>
 </g>
 <g partID="855996561">
  <g transform="translate(17.652,58.138)">
   <g transform="matrix(0,-1,1,0,0,0)">
    <g id="silkscreen">
     <line stroke-width="0.72" stroke="black" x2="0.72" y1="0.986665" x1="0.72" id="line28" y2="101.253"/>
     <line stroke-width="0.72" stroke="black" x2="29.52" y1="101.52" x1="0.72" id="line30" y2="101.52"/>
     <line stroke-width="0.72" stroke="black" x2="29.52" y1="101.253" x1="29.52" id="line32" y2="0.986665"/>
     <line stroke-width="0.72" stroke="black" x2="11.52" y1="0.72" x1="0.72" id="line34" y2="0.72"/>
     <line stroke-width="0.72" stroke="black" x2="29.52" y1="0.72" x1="18.72" id="line36" y2="0.72"/>
    </g>
   </g>
  </g>
 </g>
 <g partID="856571741">
  <g transform="translate(108.66,22.426)">
   <g transform="matrix(-1,0,0,-1,0,0)">
    <g id="silkscreen">
     <line stroke-linecap="round" stroke-width="0.576" class="other" stroke="black" x2="2.088" y1="12.888" x1="0.288" y2="14.688"/>
     <line stroke-linecap="round" stroke-width="0.576" class="other" stroke="black" x2="7.488" y1="14.688" x1="5.688" y2="12.888"/>
     <line stroke-linecap="round" stroke-width="0.576" class="other" stroke="black" x2="9.288" y1="12.888" x1="7.488" y2="14.688"/>
     <line stroke-linecap="round" stroke-width="0.576" class="other" stroke="black" x2="14.688" y1="14.688" x1="12.888" y2="12.888"/>
     <line stroke-linecap="round" stroke-width="0.576" class="other" stroke="black" x2="16.488" y1="12.888" x1="14.688" y2="14.688"/>
     <line stroke-linecap="round" stroke-width="0.576" class="other" stroke="black" x2="21.888" y1="14.688" x1="20.088" y2="12.888"/>
     <line stroke-linecap="round" stroke-width="0.576" class="other" stroke="black" x2="0.288" y1="12.888" x1="0.288" y2="2.088"/>
     <line stroke-linecap="round" stroke-width="0.576" class="other" stroke="black" x2="2.088" y1="2.088" x1="0.288" y2="0.288"/>
     <line stroke-linecap="round" stroke-width="0.576" class="other" stroke="black" x2="5.688" y1="0.288" x1="2.088" y2="0.288"/>
     <line stroke-linecap="round" stroke-width="0.576" class="other" stroke="black" x2="7.488" y1="0.288" x1="5.688" y2="2.088"/>
     <line stroke-linecap="round" stroke-width="0.576" class="other" stroke="black" x2="9.288" y1="2.088" x1="7.488" y2="0.288"/>
     <line stroke-linecap="round" stroke-width="0.576" class="other" stroke="black" x2="12.888" y1="0.288" x1="9.288" y2="0.288"/>
     <line stroke-linecap="round" stroke-width="0.576" class="other" stroke="black" x2="14.688" y1="0.288" x1="12.888" y2="2.088"/>
     <line stroke-linecap="round" stroke-width="0.576" class="other" stroke="black" x2="16.488" y1="2.088" x1="14.688" y2="0.288"/>
     <line stroke-linecap="round" stroke-width="0.576" class="other" stroke="black" x2="20.088" y1="0.288" x1="16.488" y2="0.288"/>
     <line stroke-linecap="round" stroke-width="0.576" class="other" stroke="black" x2="21.888" y1="0.288" x1="20.088" y2="2.088"/>
     <line stroke-linecap="round" stroke-width="0.576" class="other" stroke="black" x2="7.488" y1="2.088" x1="7.488" y2="12.888"/>
     <line stroke-linecap="round" stroke-width="0.576" class="other" stroke="black" x2="14.688" y1="2.088" x1="14.688" y2="12.888"/>
     <line stroke-linecap="round" stroke-width="0.576" class="other" stroke="black" x2="21.888" y1="2.088" x1="21.888" y2="12.888"/>
     <line stroke-linecap="round" stroke-width="0.576" class="other" stroke="black" x2="20.088" y1="14.688" x1="16.488" y2="14.688"/>
     <line stroke-linecap="round" stroke-width="0.576" class="other" stroke="black" x2="12.888" y1="14.688" x1="9.288" y2="14.688"/>
     <line stroke-linecap="round" stroke-width="0.576" class="other" stroke="black" x2="5.688" y1="14.688" x1="2.088" y2="14.688"/>
     <line stroke-linecap="round" stroke-width="0.576" class="other" stroke="black" x2="2.088" y1="15.6376" x1="5.688" y2="15.6376"/>
    </g>
   </g>
  </g>
 </g>
 <g partID="856588950">
  <g transform="translate(78.1534,2.53307)">
   <g id="silkscreen">
    <text x="3.9249" stroke-width="0" font-size="3.9249" xml:space="preserve" y="3.5324" xmlns:xml="http://www.w3.org/XML/1998/namespace" font-family="OCRA" id="label" fill="black" text-anchor="middle">V1</text>
   </g>
  </g>
 </g>
 <g partID="856588970">
  <g transform="translate(18.9627,11.2736)">
   <g id="silkscreen">
    <text x="29.4367" stroke-width="0" font-size="3.92489" xml:space="preserve" y="3.5324" xmlns:xml="http://www.w3.org/XML/1998/namespace" font-family="OCRA" id="label" fill="black" text-anchor="middle">CC BY-NC-SA 4.0</text>
   </g>
  </g>
 </g>
 <g partID="856588930">
  <g transform="translate(14.7768,6.84467)">
   <g id="silkscreen">
    <text x="33.3616" stroke-width="0" font-size="3.92489" xml:space="preserve" y="3.5324" xmlns:xml="http://www.w3.org/XML/1998/namespace" font-family="OCRA" id="label" fill="black" text-anchor="middle">(C) Jost Brachert</text>
   </g>
  </g>
 </g>
 <g partID="856588900">
  <g transform="translate(8.15688,2.4869)">
   <g id="silkscreen">
    <text x="39.249" stroke-width="0" font-size="3.9249" xml:space="preserve" y="3.5324" xmlns:xml="http://www.w3.org/XML/1998/namespace" font-family="OCRA" id="label" fill="black" text-anchor="middle">WS2812B Driving Unit</text>
   </g>
  </g>
 </g>
 <g id="partLabel" partID="856569240">
  <g transform="translate(23.8184,94.2076)">
   <g font-style="normal" stroke="none" font-size="5" fill-opacity="1" font-family="'OCRA'" id="silkscreenLabel" font-weight="normal" fill="#000000">
    <text x="0" y="3.75">SW1</text>
   </g>
  </g>
 </g>
 <g id="partLabel" partID="856571740">
  <g transform="translate(96.3592,1.18728)">
   <g font-style="normal" stroke="none" font-size="5" fill-opacity="1" font-family="'OCRA'" id="silkscreenLabel" font-weight="normal" fill="#000000">
    <text x="0" y="3.75">ISP</text>
   </g>
  </g>
 </g>
 <g id="partLabel" partID="856572350">
  <g transform="translate(37.5008,59.5062)">
   <g font-style="normal" stroke="none" font-size="5" fill-opacity="1" font-family="'OCRA'" id="silkscreenLabel" font-weight="normal" fill="#000000">
    <text x="0" y="3.75">J2</text>
   </g>
  </g>
 </g>
 <g id="partLabel" partID="855996560">
  <g transform="translate(107.643,22.5792)">
   <g font-style="normal" stroke="none" font-size="5" fill-opacity="1" font-family="'OCRA'" id="silkscreenLabel" font-weight="normal" fill="#000000">
    <text x="0" y="3.75">IC1</text>
   </g>
  </g>
 </g>
 <g id="partLabel" partID="856027200">
  <g transform="translate(93.46,76.1964)">
   <g font-style="normal" stroke="none" font-size="5" fill-opacity="1" font-family="'OCRA'" id="silkscreenLabel" font-weight="normal" fill="#000000">
    <text x="0" y="3.75">XTAL1</text>
   </g>
  </g>
 </g>
 <g id="partLabel" partID="856027500">
  <g transform="translate(82.712,76.3396)">
   <g font-style="normal" stroke="none" font-size="5" fill-opacity="1" font-family="'OCRA'" id="silkscreenLabel" font-weight="normal" fill="#000000">
    <text x="0" y="3.75">C2</text>
   </g>
  </g>
 </g>
 <g id="partLabel" partID="856027300">
  <g transform="translate(72.292,65.738)">
   <g font-style="normal" stroke="none" font-size="5" fill-opacity="1" font-family="'OCRA'" id="silkscreenLabel" font-weight="normal" fill="#000000">
    <text x="0" y="3.75">C1</text>
   </g>
  </g>
 </g>
 <g id="partLabel" partID="856531930">
  <g transform="translate(119.761,69.8124)">
   <g font-style="normal" stroke="none" font-size="5" fill-opacity="1" font-family="'OCRA'" id="silkscreenLabel" font-weight="normal" fill="#000000">
    <text x="0" y="3.75">R2</text>
   </g>
  </g>
 </g>
 <g partID="856583661">
  <g transform="translate(92.8536,85.0996)">
   <g id="copper1">
    <circle stroke-width="2.13732" stroke="white" cy="4.71811" cx="4.71811" r="2.40945" id="connector0pin" fill="white"/>
   </g>
  </g>
 </g>
 <g partID="856583631">
  <g transform="translate(56.8536,85.0996)">
   <g id="copper1">
    <circle stroke-width="2.13732" stroke="white" cy="4.71811" cx="4.71811" r="2.40945" id="connector0pin" fill="white"/>
   </g>
  </g>
 </g>
 <g partID="856574061">
  <g transform="translate(60.7376,20.5834)">
   <g id="copper1">
    <circle stroke-width="2.13732" stroke="white" cy="4.43465" cx="4.43465" r="2.12599" id="connector0pin" fill="white"/>
   </g>
  </g>
 </g>
 <g partID="856574001">
  <g transform="translate(67.9376,20.5834)">
   <g id="copper1">
    <circle stroke-width="2.13732" stroke="white" cy="4.43465" cx="4.43465" r="2.12599" id="connector0pin" fill="white"/>
   </g>
  </g>
 </g>
 <g partID="856573931">
  <g transform="translate(53.5376,20.5834)">
   <g id="copper1">
    <circle stroke-width="2.13732" stroke="white" cy="4.43465" cx="4.43465" r="2.12599" id="connector0pin" fill="white"/>
   </g>
  </g>
 </g>
 <g partID="856574481">
  <g transform="translate(134.268,42.0279)">
   <g id="copper1">
    <circle stroke-width="0.72" stroke="white" cy="10.1039" cx="10.1039" r="8.50392" id="nonconn0" fill="white"/>
   </g>
  </g>
 </g>
 <g partID="856574451">
  <g transform="translate(134.268,45.6279)">
   <g id="copper1">
    <circle stroke-width="0.72" stroke="white" cy="10.1039" cx="10.1039" r="8.50392" id="nonconn0" fill="white"/>
   </g>
  </g>
 </g>
 <g partID="856572352">
  <g transform="translate(37.812,55.978)">
   <g transform="matrix(0,1,-1,0,0,0)">
    <g id="copper1">
     <g id="copper0">
      <circle stroke-width="2.16" stroke="white" cy="5.04" cx="5.04" id="connector0pin" r="2.088" fill="white"/>
      <circle stroke-width="2.16" stroke="white" cy="12.24" cx="5.04" id="connector1pin" r="2.088" fill="white"/>
     </g>
    </g>
   </g>
  </g>
 </g>
 <g partID="856569242">
  <g transform="translate(23.124,64.0284)">
   <g id="copper1">
    <circle stroke-width="2.16" stroke="white" style="stroke-miterlimit:4;stroke-dasharray:none" cy="25.7896" cx="6.048" id="circle0" r="1.98" fill="white"/>
    <circle stroke-width="2.16" stroke="white" style="stroke-miterlimit:4;stroke-dasharray:none" cy="25.7896" cx="13.248" id="circle1" r="1.98" fill="white"/>
    <circle stroke-width="2.16" stroke="white" style="stroke-miterlimit:4;stroke-dasharray:none" cy="25.7896" cx="20.448" id="circle2" r="1.98" fill="white"/>
    <circle stroke-width="2.16" stroke="white" style="stroke-miterlimit:4;stroke-dasharray:none" cy="25.7896" cx="27.648" id="circle3" r="1.98" fill="white"/>
    <circle stroke-width="2.16" stroke="white" style="stroke-miterlimit:4;stroke-dasharray:none" cy="4.18961" cx="27.648" id="circle4" r="1.98" fill="white"/>
    <circle stroke-width="2.16" stroke="white" style="stroke-miterlimit:4;stroke-dasharray:none" cy="4.18961" cx="20.448" id="circle5" r="1.98" fill="white"/>
    <circle stroke-width="2.16" stroke="white" style="stroke-miterlimit:4;stroke-dasharray:none" cy="4.18961" cx="13.248" id="circle6" r="1.98" fill="white"/>
    <circle stroke-width="2.16" stroke="white" style="stroke-miterlimit:4;stroke-dasharray:none" cy="4.18961" cx="6.048" id="circle7" r="1.98" fill="white"/>
    <g id="copper0">
     <circle stroke-width="2.16" stroke="white" cy="25.7896" cx="6.048" id="connector0pad" r="1.98" fill="white"/>
     <circle stroke-width="2.16" stroke="white" cy="25.7896" cx="13.248" id="connector1pad" r="1.98" fill="white"/>
     <circle stroke-width="2.16" stroke="white" cy="25.7896" cx="20.448" id="connector2pad" r="1.98" fill="white"/>
     <circle stroke-width="2.16" stroke="white" cy="25.7896" cx="27.648" id="connector3pad" r="1.98" fill="white"/>
     <circle stroke-width="2.16" stroke="white" cy="4.18961" cx="27.648" id="connector4pad" r="1.98" fill="white"/>
     <circle stroke-width="2.16" stroke="white" cy="4.18961" cx="20.448" id="connector5pad" r="1.98" fill="white"/>
     <circle stroke-width="2.16" stroke="white" cy="4.18961" cx="13.248" id="connector6pad" r="1.98" fill="white"/>
     <circle stroke-width="2.16" stroke="white" cy="4.18961" cx="6.048" id="connector7pad" r="1.98" fill="white"/>
    </g>
   </g>
  </g>
 </g>
 <g partID="856027202">
  <g transform="translate(81.7264,61.1314)">
   <g id="copper1">
    <circle stroke-width="2.13732" stroke="white" cy="7.08448" cx="22.5479" id="connector1pin" r="1.84465" fill="white"/>
    <circle stroke-width="2.13732" stroke="white" cy="7.08661" cx="8.64567" id="connector0pin" r="1.84252" fill="white"/>
   </g>
  </g>
 </g>
 <g partID="856027502">
  <g transform="translate(69.492,72.538)">
   <g transform="matrix(1,0,0,1,0,0)">
    <g id="copper1">
     <circle stroke-width="2.16" stroke="white" cy="2.88" cx="2.88" id="connector0pin" r="1.8" fill="white"/>
     <circle stroke-width="2.16" stroke="white" cy="2.88" cx="10.0933" id="connector1pin" r="1.8" fill="white"/>
    </g>
   </g>
  </g>
 </g>
 <g partID="856027302">
  <g transform="translate(69.492,58.138)">
   <g id="copper1">
    <circle stroke-width="2.16" stroke="white" cy="2.88" cx="2.88" id="connector0pin" r="1.8" fill="white"/>
    <circle stroke-width="2.16" stroke="white" cy="2.88" cx="10.0933" id="connector1pin" r="1.8" fill="white"/>
   </g>
  </g>
 </g>
 <g partID="856574502">
  <g transform="translate(91.812,84.778)">
   <g transform="matrix(0,1,-1,0,0,0)">
    <g flipped="1" id="copper1">
     <g transform="matrix(-1, 0, 0, 1, 10.08, 0)">
      <g>
       <g>
        <g>
         <circle stroke-width="2.16" stroke="white" cy="5.04" cx="5.04" id="connector0pin" r="2.088" fill="white"/>
         <circle stroke-width="2.16" stroke="white" cy="12.24" cx="5.04" id="connector1pin" r="2.088" fill="white"/>
         <circle stroke-width="2.16" stroke="white" cy="19.44" cx="5.04" id="connector2pin" r="2.088" fill="white"/>
        </g>
        <g>
         <g id="copper0">
          <circle stroke-width="2.16" stroke="white" cy="5.04" cx="5.04" id="connector0pin" r="2.088" fill="white"/>
          <circle stroke-width="2.16" stroke="white" cy="12.24" cx="5.04" id="connector1pin" r="2.088" fill="white"/>
          <circle stroke-width="2.16" stroke="white" cy="19.44" cx="5.04" id="connector2pin" r="2.088" fill="white"/>
         </g>
        </g>
       </g>
      </g>
     </g>
    </g>
   </g>
  </g>
 </g>
 <g partID="856531932">
  <g transform="translate(118.272,58.318)">
   <g transform="matrix(-1.11022e-16,1,-1,-1.11022e-16,0,0)">
    <g id="copper1">
     <!-- <rect width="55" x="10" y="10" fill="none" height="55" stroke="rgb(255, 191, 0)" stroke-width="20" /> -->
     <circle stroke-width="2.16" stroke="white" cy="2.7" cx="2.7" r="1.98" id="connector0pin" fill="white"/>
     <circle stroke-width="2.16" stroke="white" cy="2.7" cx="24.3" r="1.98" id="connector1pin" fill="white"/>
    </g>
   </g>
  </g>
 </g>
 <g partID="856025161">
  <g transform="translate(152.92,4.766)">
   <g id="copper1">
    <circle stroke-width="0.72" stroke="white" cy="5.85197" cx="5.85197" r="4.25197" id="nonconn0" fill="white"/>
   </g>
  </g>
 </g>
 <g partID="856025141">
  <g transform="translate(5.32,4.766)">
   <g id="copper1">
    <circle stroke-width="0.72" stroke="white" cy="5.85197" cx="5.85197" r="4.25197" id="nonconn0" fill="white"/>
   </g>
  </g>
 </g>
 <g partID="856025121">
  <g transform="translate(5.32,83.966)">
   <g id="copper1">
    <circle stroke-width="0.72" stroke="white" cy="5.85197" cx="5.85197" r="4.25197" id="nonconn0" fill="white"/>
   </g>
  </g>
 </g>
 <g partID="856025091">
  <g transform="translate(152.92,83.966)">
   <g id="copper1">
    <circle stroke-width="0.72" stroke="white" cy="5.85197" cx="5.85197" r="4.25197" id="nonconn0" fill="white"/>
   </g>
  </g>
 </g>
 <g partID="855996562">
  <g transform="translate(17.652,58.138)">
   <g transform="matrix(0,-1,1,0,0,0)">
    <g id="copper1">
     <g id="copper0">
      <rect width="3.96" x="2.34" stroke-width="2.16" stroke="white" y="2.34" height="3.96" id="square" fill="white"/>
      <circle stroke-width="2.16" stroke="white" d="M 87.5,60 C 87.5,75.187831 75.187831,87.5 60,87.5 44.812169,87.5 32.5,75.187831 32.5,60 32.5,44.812169 44.812169,32.5 60,32.5 75.187831,32.5 87.5,44.812169 87.5,60 z" cy="4.32" cx="4.32" id="connector1pin" r="1.98" fill="white"/>
      <circle stroke-width="2.16" stroke="white" d="m 87.5,160 c 0,15.18783 -12.312169,27.5 -27.5,27.5 -15.187831,0 -27.5,-12.31217 -27.5,-27.5 0,-15.18783 12.312169,-27.5 27.5,-27.5 15.187831,0 27.5,12.31217 27.5,27.5 z" cy="11.52" cx="4.32" id="connector2pin" r="1.98" fill="white"/>
      <circle stroke-width="2.16" stroke="white" d="m 87.5,260 c 0,15.18783 -12.312169,27.5 -27.5,27.5 -15.187831,0 -27.5,-12.31217 -27.5,-27.5 0,-15.18783 12.312169,-27.5 27.5,-27.5 15.187831,0 27.5,12.31217 27.5,27.5 z" cy="18.72" cx="4.32" id="connector3pin" r="1.98" fill="white"/>
      <circle stroke-width="2.16" stroke="white" d="m 87.5,360 c 0,15.18783 -12.312169,27.5 -27.5,27.5 -15.187831,0 -27.5,-12.31217 -27.5,-27.5 0,-15.18783 12.312169,-27.5 27.5,-27.5 15.187831,0 27.5,12.31217 27.5,27.5 z" cy="25.92" cx="4.32" id="connector4pin" r="1.98" fill="white"/>
      <circle stroke-width="2.16" stroke="white" d="m 87.5,460 c 0,15.18783 -12.312169,27.5 -27.5,27.5 -15.187831,0 -27.5,-12.31217 -27.5,-27.5 0,-15.18783 12.312169,-27.5 27.5,-27.5 15.187831,0 27.5,12.31217 27.5,27.5 z" cy="33.12" cx="4.32" id="connector5pin" r="1.98" fill="white"/>
      <circle stroke-width="2.16" stroke="white" d="m 87.5,560 c 0,15.18783 -12.312169,27.5 -27.5,27.5 -15.187831,0 -27.5,-12.31217 -27.5,-27.5 0,-15.18783 12.312169,-27.5 27.5,-27.5 15.187831,0 27.5,12.31217 27.5,27.5 z" cy="40.32" cx="4.32" id="connector6pin" r="1.98" fill="white"/>
      <circle stroke-width="2.16" stroke="white" d="m 87.5,660 c 0,15.18783 -12.312169,27.5 -27.5,27.5 -15.187831,0 -27.5,-12.31217 -27.5,-27.5 0,-15.18783 12.312169,-27.5 27.5,-27.5 15.187831,0 27.5,12.31217 27.5,27.5 z" cy="47.52" cx="4.32" id="connector7pin" r="1.98" fill="white"/>
      <circle stroke-width="2.16" stroke="white" d="m 87.5,760 c 0,15.18783 -12.312169,27.5 -27.5,27.5 -15.187831,0 -27.5,-12.31217 -27.5,-27.5 0,-15.18783 12.312169,-27.5 27.5,-27.5 15.187831,0 27.5,12.31217 27.5,27.5 z" cy="54.72" cx="4.32" id="connector8pin" r="1.98" fill="white"/>
      <g transform="matrix(1, 0, 0, 1, 0, 43.2)">
       <circle stroke-width="2.16" stroke="white" d="m 87.5,260 c 0,15.18783 -12.312169,27.5 -27.5,27.5 -15.187831,0 -27.5,-12.31217 -27.5,-27.5 0,-15.18783 12.312169,-27.5 27.5,-27.5 15.187831,0 27.5,12.31217 27.5,27.5 z" cy="18.72" cx="4.32" id="connector9pin" r="1.98" fill="white"/>
      </g>
      <g transform="matrix(1, 0, 0, 1, 0, 43.2)">
       <circle stroke-width="2.16" stroke="white" d="m 87.5,360 c 0,15.18783 -12.312169,27.5 -27.5,27.5 -15.187831,0 -27.5,-12.31217 -27.5,-27.5 0,-15.18783 12.312169,-27.5 27.5,-27.5 15.187831,0 27.5,12.31217 27.5,27.5 z" cy="25.92" cx="4.32" id="connector10pin" r="1.98" fill="white"/>
      </g>
      <g transform="matrix(1, 0, 0, 1, 0, 43.2)">
       <circle stroke-width="2.16" stroke="white" d="m 87.5,460 c 0,15.18783 -12.312169,27.5 -27.5,27.5 -15.187831,0 -27.5,-12.31217 -27.5,-27.5 0,-15.18783 12.312169,-27.5 27.5,-27.5 15.187831,0 27.5,12.31217 27.5,27.5 z" cy="33.12" cx="4.32" id="connector11pin" r="1.98" fill="white"/>
      </g>
      <g transform="matrix(1, 0, 0, 1, 0, 43.2)">
       <circle stroke-width="2.16" stroke="white" d="m 87.5,560 c 0,15.18783 -12.312169,27.5 -27.5,27.5 -15.187831,0 -27.5,-12.31217 -27.5,-27.5 0,-15.18783 12.312169,-27.5 27.5,-27.5 15.187831,0 27.5,12.31217 27.5,27.5 z" cy="40.32" cx="4.32" id="connector12pin" r="1.98" fill="white"/>
      </g>
      <g transform="matrix(1, 0, 0, 1, 0, 43.2)">
       <circle stroke-width="2.16" stroke="white" d="m 87.5,660 c 0,15.18783 -12.312169,27.5 -27.5,27.5 -15.187831,0 -27.5,-12.31217 -27.5,-27.5 0,-15.18783 12.312169,-27.5 27.5,-27.5 15.187831,0 27.5,12.31217 27.5,27.5 z" cy="47.52" cx="4.32" id="connector13pin" r="1.98" fill="white"/>
      </g>
      <g transform="matrix(1, 0, 0, 1, 0, 43.2)">
       <circle stroke-width="2.16" stroke="white" d="m 87.5,760 c 0,15.18783 -12.312169,27.5 -27.5,27.5 -15.187831,0 -27.5,-12.31217 -27.5,-27.5 0,-15.18783 12.312169,-27.5 27.5,-27.5 15.187831,0 27.5,12.31217 27.5,27.5 z" cy="54.72" cx="4.32" id="connector14pin" r="1.98" fill="white"/>
      </g>
      <g transform="matrix(1, 0, 0, 1, 0, 43.2)">
       <circle stroke-width="2.16" stroke="white" d="m 387.5,760 c 0,15.18783 -12.31217,27.5 -27.5,27.5 -15.18783,0 -27.5,-12.31217 -27.5,-27.5 0,-15.18783 12.31217,-27.5 27.5,-27.5 15.18783,0 27.5,12.31217 27.5,27.5 z" cy="54.72" cx="25.92" id="connector15pin" r="1.98" fill="white"/>
      </g>
      <g transform="matrix(1, 0, 0, 1, 0, 43.2)">
       <circle stroke-width="2.16" stroke="white" d="m 387.5,660 c 0,15.18783 -12.31217,27.5 -27.5,27.5 -15.18783,0 -27.5,-12.31217 -27.5,-27.5 0,-15.18783 12.31217,-27.5 27.5,-27.5 15.18783,0 27.5,12.31217 27.5,27.5 z" cy="47.52" cx="25.92" id="connector16pin" r="1.98" fill="white"/>
      </g>
      <g transform="matrix(1, 0, 0, 1, 0, 43.2)">
       <circle stroke-width="2.16" stroke="white" d="m 387.5,560 c 0,15.18783 -12.31217,27.5 -27.5,27.5 -15.18783,0 -27.5,-12.31217 -27.5,-27.5 0,-15.18783 12.31217,-27.5 27.5,-27.5 15.18783,0 27.5,12.31217 27.5,27.5 z" cy="40.32" cx="25.92" id="connector17pin" r="1.98" fill="white"/>
      </g>
      <g transform="matrix(1, 0, 0, 1, 0, 43.2)">
       <circle stroke-width="2.16" stroke="white" d="m 387.5,460 c 0,15.18783 -12.31217,27.5 -27.5,27.5 -15.18783,0 -27.5,-12.31217 -27.5,-27.5 0,-15.18783 12.31217,-27.5 27.5,-27.5 15.18783,0 27.5,12.31217 27.5,27.5 z" cy="33.12" cx="25.92" id="connector18pin" r="1.98" fill="white"/>
      </g>
      <g transform="matrix(1, 0, 0, 1, 0, 43.2)">
       <circle stroke-width="2.16" stroke="white" d="m 387.5,360 c 0,15.18783 -12.31217,27.5 -27.5,27.5 -15.18783,0 -27.5,-12.31217 -27.5,-27.5 0,-15.18783 12.31217,-27.5 27.5,-27.5 15.18783,0 27.5,12.31217 27.5,27.5 z" cy="25.92" cx="25.92" id="connector19pin" r="1.98" fill="white"/>
      </g>
      <g transform="matrix(1, 0, 0, 1, 0, 43.2)">
       <circle stroke-width="2.16" stroke="white" d="m 387.5,260 c 0,15.18783 -12.31217,27.5 -27.5,27.5 -15.18783,0 -27.5,-12.31217 -27.5,-27.5 0,-15.18783 12.31217,-27.5 27.5,-27.5 15.18783,0 27.5,12.31217 27.5,27.5 z" cy="18.72" cx="25.92" id="connector20pin" r="1.98" fill="white"/>
      </g>
      <circle stroke-width="2.16" stroke="white" d="m 387.5,760 c 0,15.18783 -12.31217,27.5 -27.5,27.5 -15.18783,0 -27.5,-12.31217 -27.5,-27.5 0,-15.18783 12.31217,-27.5 27.5,-27.5 15.18783,0 27.5,12.31217 27.5,27.5 z" cy="54.72" cx="25.92" id="connector21pin" r="1.98" fill="white"/>
      <circle stroke-width="2.16" stroke="white" d="m 387.5,660 c 0,15.18783 -12.31217,27.5 -27.5,27.5 -15.18783,0 -27.5,-12.31217 -27.5,-27.5 0,-15.18783 12.31217,-27.5 27.5,-27.5 15.18783,0 27.5,12.31217 27.5,27.5 z" cy="47.52" cx="25.92" id="connector22pin" r="1.98" fill="white"/>
      <circle stroke-width="2.16" stroke="white" d="m 387.5,560 c 0,15.18783 -12.31217,27.5 -27.5,27.5 -15.18783,0 -27.5,-12.31217 -27.5,-27.5 0,-15.18783 12.31217,-27.5 27.5,-27.5 15.18783,0 27.5,12.31217 27.5,27.5 z" cy="40.32" cx="25.92" id="connector23pin" r="1.98" fill="white"/>
      <circle stroke-width="2.16" stroke="white" d="m 387.5,460 c 0,15.18783 -12.31217,27.5 -27.5,27.5 -15.18783,0 -27.5,-12.31217 -27.5,-27.5 0,-15.18783 12.31217,-27.5 27.5,-27.5 15.18783,0 27.5,12.31217 27.5,27.5 z" cy="33.12" cx="25.92" id="connector24pin" r="1.98" fill="white"/>
      <circle stroke-width="2.16" stroke="white" d="m 387.5,360 c 0,15.18783 -12.31217,27.5 -27.5,27.5 -15.18783,0 -27.5,-12.31217 -27.5,-27.5 0,-15.18783 12.31217,-27.5 27.5,-27.5 15.18783,0 27.5,12.31217 27.5,27.5 z" cy="25.92" cx="25.92" id="connector25pin" r="1.98" fill="white"/>
      <circle stroke-width="2.16" stroke="white" d="m 387.5,260 c 0,15.18783 -12.31217,27.5 -27.5,27.5 -15.18783,0 -27.5,-12.31217 -27.5,-27.5 0,-15.18783 12.31217,-27.5 27.5,-27.5 15.18783,0 27.5,12.31217 27.5,27.5 z" cy="18.72" cx="25.92" id="connector26pin" r="1.98" fill="white"/>
      <circle stroke-width="2.16" stroke="white" d="m 387.5,160 c 0,15.18783 -12.31217,27.5 -27.5,27.5 -15.18783,0 -27.5,-12.31217 -27.5,-27.5 0,-15.18783 12.31217,-27.5 27.5,-27.5 15.18783,0 27.5,12.31217 27.5,27.5 z" cy="11.52" cx="25.92" id="connector27pin" r="1.98" fill="white"/>
      <circle stroke-width="2.16" stroke="white" d="m 387.5,60 c 0,15.187831 -12.31217,27.5 -27.5,27.5 -15.18783,0 -27.5,-12.312169 -27.5,-27.5 0,-15.187831 12.31217,-27.5 27.5,-27.5 15.18783,0 27.5,12.312169 27.5,27.5 z" cy="4.32" cx="25.92" id="connector28pin" r="1.98" fill="white"/>
     </g>
    </g>
   </g>
  </g>
 </g>
 <g partID="856571742">
  <g transform="translate(108.66,22.426)">
   <g transform="matrix(-1,0,0,-1,0,0)">
    <g id="copper1">
     <circle stroke-width="1.944" stroke="white" cy="11.088" cx="3.888" id="connector0pad" connectorname="1" r="2.052" fill="white"/>
     <circle stroke-width="1.944" stroke="white" cy="3.888" cx="3.888" id="connector1pad" connectorname="2" r="2.052" fill="white"/>
     <circle stroke-width="1.944" stroke="white" cy="11.808" cx="11.088" id="connector2pad" connectorname="3" r="2.052" fill="white"/>
     <circle stroke-width="1.944" stroke="white" cy="4.608" cx="11.088" id="connector3pad" connectorname="4" r="2.052" fill="white"/>
     <circle stroke-width="1.944" stroke="white" cy="11.088" cx="18.288" id="connector4pad" connectorname="5" r="2.052" fill="white"/>
     <circle stroke-width="1.944" stroke="white" cy="3.888" cx="18.288" id="connector5pad" connectorname="6" r="2.052" fill="white"/>
     <g id="copper0">
      <circle stroke-width="1.944" stroke="white" cy="11.088" cx="3.888" id="connector0pad" connectorname="1" r="2.052" fill="white"/>
      <circle stroke-width="1.944" stroke="white" cy="3.888" cx="3.888" id="connector1pad" connectorname="2" r="2.052" fill="white"/>
      <circle stroke-width="1.944" stroke="white" cy="11.808" cx="11.088" id="connector2pad" connectorname="3" r="2.052" fill="white"/>
      <circle stroke-width="1.944" stroke="white" cy="4.608" cx="11.088" id="connector3pad" connectorname="4" r="2.052" fill="white"/>
      <circle stroke-width="1.944" stroke="white" cy="11.088" cx="18.288" id="connector4pad" connectorname="5" r="2.052" fill="white"/>
      <circle stroke-width="1.944" stroke="white" cy="3.888" cx="18.288" id="connector5pad" connectorname="6" r="2.052" fill="white"/>
     </g>
    </g>
   </g>
  </g>
 </g>
</svg>
