; NON-PLATED HOLES START AT T1
; THROUGH (PLATED) HOLES START AT T100
M48
INCH
T100C0.038000
T101C0.040000
T102C0.039370
T103C0.031496
T104C0.035000
T105C0.047244
T106C0.031555
T107C0.030000
%
T100
X023805Y003863
X015305Y007863
X022805Y003863
X021805Y003863
X016305Y007863
T101
X026305Y013763
X024305Y014763
X026305Y014763
X025305Y014863
X024305Y013763
X025305Y013863
T102
X019805Y012863
X021805Y012863
X020805Y012863
T103
X024305Y006863
T104
X027805Y008863
X014805Y011863
X021805Y008863
X024805Y008863
X015805Y008863
X027805Y004863
X026805Y008863
X014805Y008863
X023805Y008863
X017805Y008863
X018805Y008863
X015805Y003863
X020805Y011863
X016805Y008863
X027805Y007863
X021805Y011863
X018805Y003863
X018805Y011863
X026805Y011863
X018805Y006863
X017805Y003863
X027805Y011863
X019805Y011863
X019805Y008863
X015805Y006863
X017805Y011863
X016805Y003863
X016805Y006863
X015805Y011863
X022805Y008863
X020805Y008863
X025805Y011863
X022805Y011863
X025805Y008863
X023805Y011863
X017805Y006863
X016805Y011863
X024805Y011863
T105
X025305Y003863
X020305Y003863
T106
X026236Y006864
T107
X022807Y007863
X021805Y007863
X022807Y005863
X021805Y005863
T00
M30
